…
``` r
datos <- datos[,!(colnames(datos) %in% c("torneo","id_partido","fasepartido", "tiempo"))]
```

\#Se decide las columnas a utilizar y se hace el filtro de columnas

``` r
arco <- datos[order(datos$golesSalvados, decreasing = TRUE),]
arco <- arco[,colnames(datos) %in% c("equipo","partido","local","goalsConceded", "cornerTaken", "penaltyConceded", "penaltySave", "golesSalvados")]
arco
```

    ## # A tibble: 130 x 8
    ##    equipo  partido   local goalsConceded cornerTaken penaltyConceded penaltySave
    ##    <chr>   <chr>     <lgl>         <dbl>       <dbl>           <dbl>       <dbl>
    ##  1 Univer~ Uni<f3>n~ FALSE             1           2               0           0
    ##  2 Deport~ Uni<f3>n~ FALSE             0           0               0           0
    ##  3 Deport~ Deportes~ TRUE              0           0               0           0
    ##  4 Uni<f3~ Universi~ FALSE             1           0               0           0
    ##  5 Coquim~ Uni<f3>n~ FALSE             1           2               0           0
    ##  6 Santia~ O'Higgin~ FALSE             1           5               1           0
    ##  7 Everton Universi~ FALSE             0           1               0           0
    ##  8 Uni<f3~ Uni<f3>n~ TRUE              1           5               0           0
    ##  9 Uni<f3~ Uni<f3>n~ TRUE              0           2               1           1
    ## 10 Univer~ Santiago~ FALSE             0           2               0           0
    ## # ... with 120 more rows, and 1 more variable: golesSalvados <dbl>
…
